<svg id="visual" viewBox="0 0 960 540" width="960" height="540" xmlns="http://www.w3.org/2000/svg"
     version="1.1">
    <rect x="0" y="0" width="960" height="540" fill="#34495e"></rect>
    <path d="M0 330L16 332.8C32 335.7 64 341.3 96 353.3C128 365.3 160 383.7 192 386.7C224 389.7 256 377.3 288 373.3C320 369.3 352 373.7 384 369.7C416 365.7 448 353.3 480 344.7C512 336 544 331 576 336.8C608 342.7 640 359.3 672 373.3C704 387.3 736 398.7 768 390.8C800 383 832 356 864 342.3C896 328.7 928 328.3 944 328.2L960 328L960 541L944 541C928 541 896 541 864 541C832 541 800 541 768 541C736 541 704 541 672 541C640 541 608 541 576 541C544 541 512 541 480 541C448 541 416 541 384 541C352 541 320 541 288 541C256 541 224 541 192 541C160 541 128 541 96 541C64 541 32 541 16 541L0 541Z"
          fill="#ff512f"></path>
    <path d="M0 406L16 409.5C32 413 64 420 96 418.3C128 416.7 160 406.3 192 402.8C224 399.3 256 402.7 288 399C320 395.3 352 384.7 384 377.5C416 370.3 448 366.7 480 369.5C512 372.3 544 381.7 576 378.7C608 375.7 640 360.3 672 353C704 345.7 736 346.3 768 353.8C800 361.3 832 375.7 864 388C896 400.3 928 410.7 944 415.8L960 421L960 541L944 541C928 541 896 541 864 541C832 541 800 541 768 541C736 541 704 541 672 541C640 541 608 541 576 541C544 541 512 541 480 541C448 541 416 541 384 541C352 541 320 541 288 541C256 541 224 541 192 541C160 541 128 541 96 541C64 541 32 541 16 541L0 541Z"
          fill="#fe5f29"></path>
    <path d="M0 376L16 378.2C32 380.3 64 384.7 96 390C128 395.3 160 401.7 192 408.3C224 415 256 422 288 422.8C320 423.7 352 418.3 384 411.8C416 405.3 448 397.7 480 397.2C512 396.7 544 403.3 576 401.3C608 399.3 640 388.7 672 384.8C704 381 736 384 768 387.8C800 391.7 832 396.3 864 400.8C896 405.3 928 409.7 944 411.8L960 414L960 541L944 541C928 541 896 541 864 541C832 541 800 541 768 541C736 541 704 541 672 541C640 541 608 541 576 541C544 541 512 541 480 541C448 541 416 541 384 541C352 541 320 541 288 541C256 541 224 541 192 541C160 541 128 541 96 541C64 541 32 541 16 541L0 541Z"
          fill="#fc6c23"></path>
    <path d="M0 446L16 443.8C32 441.7 64 437.3 96 433.8C128 430.3 160 427.7 192 428.5C224 429.3 256 433.7 288 440.3C320 447 352 456 384 459.3C416 462.7 448 460.3 480 455.8C512 451.3 544 444.7 576 440.2C608 435.7 640 433.3 672 431.7C704 430 736 429 768 434.3C800 439.7 832 451.3 864 454.5C896 457.7 928 452.3 944 449.7L960 447L960 541L944 541C928 541 896 541 864 541C832 541 800 541 768 541C736 541 704 541 672 541C640 541 608 541 576 541C544 541 512 541 480 541C448 541 416 541 384 541C352 541 320 541 288 541C256 541 224 541 192 541C160 541 128 541 96 541C64 541 32 541 16 541L0 541Z"
          fill="#f9781e"></path>
    <path d="M0 453L16 453.7C32 454.3 64 455.7 96 456.8C128 458 160 459 192 459.7C224 460.3 256 460.7 288 462.2C320 463.7 352 466.3 384 462.8C416 459.3 448 449.7 480 444.5C512 439.3 544 438.7 576 438.2C608 437.7 640 437.3 672 438.5C704 439.7 736 442.3 768 445.2C800 448 832 451 864 455.3C896 459.7 928 465.3 944 468.2L960 471L960 541L944 541C928 541 896 541 864 541C832 541 800 541 768 541C736 541 704 541 672 541C640 541 608 541 576 541C544 541 512 541 480 541C448 541 416 541 384 541C352 541 320 541 288 541C256 541 224 541 192 541C160 541 128 541 96 541C64 541 32 541 16 541L0 541Z"
          fill="#f6831a"></path>
    <path d="M0 483L16 483C32 483 64 483 96 486C128 489 160 495 192 494.7C224 494.3 256 487.7 288 483.3C320 479 352 477 384 479C416 481 448 487 480 487.8C512 488.7 544 484.3 576 483.3C608 482.3 640 484.7 672 486C704 487.3 736 487.7 768 483.7C800 479.7 832 471.3 864 469.5C896 467.7 928 472.3 944 474.7L960 477L960 541L944 541C928 541 896 541 864 541C832 541 800 541 768 541C736 541 704 541 672 541C640 541 608 541 576 541C544 541 512 541 480 541C448 541 416 541 384 541C352 541 320 541 288 541C256 541 224 541 192 541C160 541 128 541 96 541C64 541 32 541 16 541L0 541Z"
          fill="#f38e18"></path>
    <path d="M0 501L16 501.8C32 502.7 64 504.3 96 505C128 505.7 160 505.3 192 505.5C224 505.7 256 506.3 288 506.3C320 506.3 352 505.7 384 503.7C416 501.7 448 498.3 480 497.3C512 496.3 544 497.7 576 499.3C608 501 640 503 672 504.3C704 505.7 736 506.3 768 508.2C800 510 832 513 864 512.8C896 512.7 928 509.3 944 507.7L960 506L960 541L944 541C928 541 896 541 864 541C832 541 800 541 768 541C736 541 704 541 672 541C640 541 608 541 576 541C544 541 512 541 480 541C448 541 416 541 384 541C352 541 320 541 288 541C256 541 224 541 192 541C160 541 128 541 96 541C64 541 32 541 16 541L0 541Z"
          fill="#f09819"></path>
</svg>