module gitlab.com/joelMuehlena/jm-web-monorepo

go 1.22.0

require (
	dario.cat/mergo v1.0.0
	github.com/allegro/bigcache/v3 v3.1.0
	github.com/exaring/otelpgx v0.5.4
	github.com/gin-contrib/zap v0.2.0
	github.com/gin-gonic/gin v1.9.1
	github.com/go-chi/chi/v5 v5.0.12
	github.com/go-chi/cors v1.2.1
	github.com/go-chi/httplog/v2 v2.0.9
	github.com/go-playground/validator/v10 v10.18.0
	github.com/go-test/deep v1.1.0
	github.com/golang-jwt/jwt/v5 v5.2.0
	github.com/google/uuid v1.6.0
	github.com/jackc/pgx-zap v0.0.0-20221202020421-94b1cb2f889f
	github.com/jackc/pgx/v5 v5.5.3
	github.com/mitchellh/mapstructure v1.5.0
	github.com/prometheus/client_golang v1.19.0
	github.com/puzpuzpuz/xsync/v3 v3.1.0
	github.com/riandyrn/otelchi v0.5.1
	github.com/samber/lo v1.39.0
	github.com/stretchr/testify v1.8.4
	github.com/vgarvardt/pgx-google-uuid/v5 v5.0.0
	go.opentelemetry.io/contrib v1.24.0
	go.opentelemetry.io/contrib/instrumentation/github.com/gin-gonic/gin/otelgin v0.49.0
	go.opentelemetry.io/contrib/instrumentation/google.golang.org/grpc/otelgrpc v0.49.0
	go.opentelemetry.io/contrib/instrumentation/net/http/otelhttp v0.49.0
	go.opentelemetry.io/otel v1.24.0
	go.opentelemetry.io/otel/exporters/otlp/otlptrace v1.24.0
	go.opentelemetry.io/otel/exporters/otlp/otlptrace/otlptracegrpc v1.24.0
	go.opentelemetry.io/otel/sdk v1.24.0
	go.opentelemetry.io/otel/trace v1.24.0
	go.opentelemetry.io/proto/otlp v1.1.0
	go.uber.org/atomic v1.11.0
	go.uber.org/multierr v1.11.0
	go.uber.org/zap v1.27.0
	go.uber.org/zap/exp v0.2.0
	golang.org/x/exp v0.0.0-20240222234643-814bf88cf225
	google.golang.org/grpc v1.62.0
	google.golang.org/protobuf v1.32.0
	gopkg.in/yaml.v3 v3.0.1
	nhooyr.io/websocket v1.8.10
	github.com/grpc-ecosystem/go-grpc-middleware/providers/prometheus v1.0.0
)

require (
	go.mongodb.org/mongo-driver v1.14.0
	go.opentelemetry.io/contrib/instrumentation/go.mongodb.org/mongo-driver/mongo/otelmongo v0.49.0
)

require (
	github.com/beorn7/perks v1.0.1 // indirect
	github.com/bytedance/sonic v1.11.1 // indirect
	github.com/cenkalti/backoff/v4 v4.2.1 // indirect
	github.com/cespare/xxhash/v2 v2.2.0 // indirect
	github.com/chenzhuoyu/base64x v0.0.0-20230717121745-296ad89f973d // indirect
	github.com/chenzhuoyu/iasm v0.9.1 // indirect
	github.com/davecgh/go-spew v1.1.1 // indirect
	github.com/felixge/httpsnoop v1.0.4 // indirect
	github.com/gabriel-vasile/mimetype v1.4.3 // indirect
	github.com/gin-contrib/sse v0.1.0 // indirect
	github.com/go-logr/logr v1.4.1 // indirect
	github.com/go-logr/stdr v1.2.2 // indirect
	github.com/go-playground/locales v0.14.1 // indirect
	github.com/go-playground/universal-translator v0.18.1 // indirect
	github.com/goccy/go-json v0.10.2 // indirect
	github.com/golang/protobuf v1.5.3 // indirect
	github.com/golang/snappy v0.0.4 // indirect
	github.com/grpc-ecosystem/go-grpc-middleware/v2 v2.0.1 // indirect
	github.com/grpc-ecosystem/grpc-gateway/v2 v2.19.1 // indirect
	github.com/jackc/pgpassfile v1.0.0 // indirect
	github.com/jackc/pgservicefile v0.0.0-20231201235250-de7065d80cb9 // indirect
	github.com/jackc/puddle/v2 v2.2.1 // indirect
	github.com/json-iterator/go v1.1.12 // indirect
	github.com/klauspost/compress v1.17.7 // indirect
	github.com/klauspost/cpuid/v2 v2.2.7 // indirect
	github.com/leodido/go-urn v1.4.0 // indirect
	github.com/mattn/go-isatty v0.0.20 // indirect
	github.com/modern-go/concurrent v0.0.0-20180306012644-bacd9c7ef1dd // indirect
	github.com/modern-go/reflect2 v1.0.2 // indirect
	github.com/montanaflynn/stats v0.7.1 // indirect
	github.com/pelletier/go-toml/v2 v2.1.1 // indirect
	github.com/pmezard/go-difflib v1.0.0 // indirect
	github.com/prometheus/client_model v0.6.0 // indirect
	github.com/prometheus/common v0.49.0 // indirect
	github.com/prometheus/procfs v0.12.0 // indirect
	github.com/twitchyliquid64/golang-asm v0.15.1 // indirect
	github.com/ugorji/go/codec v1.2.12 // indirect
	github.com/xdg-go/pbkdf2 v1.0.0 // indirect
	github.com/xdg-go/scram v1.1.2 // indirect
	github.com/xdg-go/stringprep v1.0.4 // indirect
	github.com/youmark/pkcs8 v0.0.0-20201027041543-1326539a0a0a // indirect
	go.opentelemetry.io/otel/metric v1.24.0 // indirect
	golang.org/x/arch v0.7.0 // indirect
	golang.org/x/crypto v0.19.0 // indirect
	golang.org/x/net v0.21.0 // indirect
	golang.org/x/sync v0.6.0 // indirect
	golang.org/x/sys v0.17.0 // indirect
	golang.org/x/text v0.14.0 // indirect
	google.golang.org/genproto/googleapis/api v0.0.0-20240221002015-b0ce06bbee7c // indirect
	google.golang.org/genproto/googleapis/rpc v0.0.0-20240228224816-df926f6c8641 // indirect
)
